C:\Users\rfernandezc\Desktop\SVP_FW_V01\ASDI_MGT\asdi_mgt.ngc 1554929977
ipcore_dir/blk_mem_gen_v6_3.ngc 1532883662
../CS/chipscope_ila.ngc 1534162944
../CS/chipscope_icon.ngc 1534162000
../asi_sdi_mgt_prj/vhdl/SVP_TripleRateSDI/ngc/dru.ngc 1540629319
OK
